{
  "name": "BotMigrator",
  "description": "Blank Process",
  "main": "Main.xaml",
  "dependencies": {
    "Microsoft.Activities.Extensions": "[2.0.6.9]",
    "UiPath.Excel.Activities": "[2.6.2]",
    "UiPath.GSuite.Activities": "[1.3.1]",
    "UiPath.Mail.Activities": "[1.5.1]",
    "UiPath.System.Activities": "[19.7.0]",
    "UiPath.UIAutomation.Activities": "[19.7.0]",
    "UiPath.WebAPI.Activities": "[1.4.4]",
    "UiPathTeam.Gmail.Activities": "[1.0.6822.33137]"
  },
  "webServices": [],
  "schemaVersion": "4.0",
  "studioVersion": "19.10.1.0",
  "projectVersion": "1.0.7327.22912",
  "runtimeOptions": {
    "autoDispose": false,
    "isPausable": true,
    "requiresUserInteraction": true,
    "supportsPersistence": false,
    "excludedLoggedData": [
      "Private:*",
      "*password*"
    ],
    "executionType": "Workflow"
  },
  "designOptions": {
    "projectProfile": "Developement",
    "outputType": "Process",
    "libraryOptions": {
      "includeOriginalXaml": false,
      "privateWorkflows": []
    },
    "fileInfos": []
  },
  "arguments": {
    "input": [],
    "output": []
  },
  "expressionLanguage": "VisualBasic"
}